…
``` r
# The number and percentage of missing values grouped by
# each variable
miss_var_summary(Student_Performance_Dataset_rows)
```

    ## # A tibble: 62 × 3
    ##    variable                           n_miss pct_miss
    ##    <chr>                               <int>    <dbl>
    ##  1 CAT_2                                  22    27.5 
    ##  2 Lab_4_Linear_Discriminant_Analysis     15    18.8 
    ##  3 Quiz_4_Concept_4                        5     6.25
    ##  4 CAT_1                                   3     3.75
    ##  5 commute                                 1     1.25
    ##  6 study_time                              1     1.25
    ##  7 repeats_since_Y1                        1     1.25
    ##  8 paid_tuition                            1     1.25
    ##  9 free_tuition                            1     1.25
    ## 10 extra_curricular                        1     1.25
    ## # ℹ 52 more rows

``` r
# The number and percentage of missing values grouped by
# each observation
miss_case_summary(Student_Performance_Dataset_rows)
```

    ## # A tibble: 80 × 3
    ##     case n_miss pct_miss
    ##    <int>  <int>    <dbl>
    ##  1    29     25    40.3 
    ##  2    40      3     4.84
    ##  3    66      3     4.84
    ##  4     4      2     3.23
    ##  5     8      2     3.23
    ##  6    16      2     3.23
    ##  7    21      2     3.23
    ##  8    28      2     3.23
    ##  9    36      2     3.23
    ## 10    38      2     3.23
    ## # ℹ 70 more rows
…
``` r
# Create imputed data for the final dataset using the mice::complete()
# function in the mice package to fill in the missing data.
Student_Performance_Dataset_imputed <- mice::complete(Student_Performance_Dataset_mice, 1)
```

``` r
# Confirmation that the dataset has no more missing values in any feature:
miss_var_summary(Student_Performance_Dataset_imputed)
```

    ## # A tibble: 63 × 3
    ##    variable                    n_miss pct_miss
    ##    <chr>                        <int>    <dbl>
    ##  1 laptop                           1     1.25
    ##  2 class_group                      0     0   
    ##  3 gender                           0     0   
    ##  4 YOB                              0     0   
    ##  5 regret_choosing_bi               0     0   
    ##  6 drop_bi_now                      0     0   
    ##  7 motivator                        0     0   
    ##  8 read_content_before_lecture      0     0   
    ##  9 anticipate_test_questions        0     0   
    ## 10 answer_rhetorical_questions      0     0   
    ## # ℹ 53 more rows
…
``` r
# Checking the number and percentage of missing values grouped by
# each variable
miss_var_summary(Student_Performance_Dataset_imputed)
```

    ## # A tibble: 63 × 3
    ##    variable                    n_miss pct_miss
    ##    <chr>                        <int>    <dbl>
    ##  1 laptop                           1     1.25
    ##  2 class_group                      0     0   
    ##  3 gender                           0     0   
    ##  4 YOB                              0     0   
    ##  5 regret_choosing_bi               0     0   
    ##  6 drop_bi_now                      0     0   
    ##  7 motivator                        0     0   
    ##  8 read_content_before_lecture      0     0   
    ##  9 anticipate_test_questions        0     0   
    ## 10 answer_rhetorical_questions      0     0   
    ## # ℹ 53 more rows

``` r
# Checking the number and percentage of missing values grouped by
# each observation
miss_case_summary(Student_Performance_Dataset_imputed)
```

    ## # A tibble: 80 × 3
    ##     case n_miss pct_miss
    ##    <int>  <int>    <dbl>
    ##  1    29      1     1.59
    ##  2     1      0     0   
    ##  3     2      0     0   
    ##  4     3      0     0   
    ##  5     4      0     0   
    ##  6     5      0     0   
    ##  7     6      0     0   
    ##  8     7      0     0   
    ##  9     8      0     0   
    ## 10     9      0     0   
    ## # ℹ 70 more rows
…
